Chapter 4 Methods | Winter Storm Impacts on Traffic Speed and Safety in Salt Lake City
…
## `summarise()` regrouping output by 'Segment', 'date' (override with `.groups` argument)

segment_xwalk <- tibble(
  Segment = c("W 9000 S","E 9000 S","Redwood","Redwood","Redwood","700 E","700 E","Foothill"),
  RWIS_Site = c("SR-85@DannonWay","I-15@6200S","I-15@6200S","I-15@500S","I-15@2400S","I-15@6200S","I-15@2400S","I-80@MouthofParleys")
)

segment_xwalk %>%
  left_join(storm_hour, by = "RWIS_Site") %>%
  left_join(speed_hour, by = c("Segment","date","hour"))

## # A tibble: 9,026 x 8
##    Segment  RWIS_Site    date        hour s_intensity snowfall Speed Speed_Limit
##    <chr>    <chr>        <date>     <int>       <dbl>    <dbl> <dbl>       <dbl>
##  1 W 9000 S SR-85@Danno~ 2019-10-27     0           0   0       37.3          40
##  2 W 9000 S SR-85@Danno~ 2019-10-27     1           0   0       38.4          40
##  3 W 9000 S SR-85@Danno~ 2019-10-27     2           0   0       36.8          40
##  4 W 9000 S SR-85@Danno~ 2019-10-27     3           0   0       37.6          40
##  5 W 9000 S SR-85@Danno~ 2019-10-27     4           0   0       37.1          40
##  6 W 9000 S SR-85@Danno~ 2019-10-27     5           0   0.0850  36.8          40
##  7 W 9000 S SR-85@Danno~ 2019-10-27     6           0   0.198   36.7          40
##  8 W 9000 S SR-85@Danno~ 2019-10-27     7           0   0       36            40
##  9 W 9000 S SR-85@Danno~ 2019-10-27     8           0   0       36.4          40
## 10 W 9000 S SR-85@Danno~ 2019-10-27     9           0   0       34.6          40
## # ... with 9,016 more rows
